INDEX VERSION 1.126+/home/altantur/workspace/.metadata/.plugins/org.eclipse.jdt.core
4263912531.index
1869472122.index
135917007.index
3771603573.index
3698059349.index
1415693123.index
1270315800.index
2725119336.index
2506008879.index
1593621182.index
497174950.index
